0.0.0.0 wizhumpgyros.com
0.0.0.0 coccyxwickimp.com
0.0.0.0 n2019cov.000webhostapp.com
0.0.0.0 webmail-who-int.000webhostapp.com
0.0.0.0 010sec.com
0.0.0.0 01mspmd5yalky8.com
0.0.0.0 0byv9mgbn0.com
0.0.0.0 ns6.0pendns.org
0.0.0.0 dns.0pengl.com
0.0.0.0 12724.xyz
0.0.0.0 21736.xyz
0.0.0.0 www.analytics.247sports.com
0.0.0.0 2no.co
0.0.0.0 www.2no.co
0.0.0.0 logitechlogitechglobal.112.2o7.net
0.0.0.0 www.logitechlogitechglobal.112.2o7.net
0.0.0.0 2s11.com
0.0.0.0 30-day-change.com
0.0.0.0 www.30-day-change.com
0.0.0.0 mclean.f.360.cn
0.0.0.0 mvconf.f.360.cn
0.0.0.0 care.help.360.cn
0.0.0.0 eul.s.360.cn
0.0.0.0 g.s.360.cn
0.0.0.0 p.s.360.cn
0.0.0.0 aicleaner.shouji.360.cn
0.0.0.0 ssl.360antivirus.org
0.0.0.0 ad.360in.com
0.0.0.0 mclean.lato.cloud.360safe.com
0.0.0.0 mvconf.lato.cloud.360safe.com
0.0.0.0 mclean.cloud.360safe.com
0.0.0.0 mvconf.cloud.360safe.com
0.0.0.0 mclean.uk.cloud.360safe.com
0.0.0.0 mvconf.uk.cloud.360safe.com
0.0.0.0 3lift.org
0.0.0.0 448ff4fcfcd199a.com
0.0.0.0 44chan.me
0.0.0.0 4ourkidsky.com
0.0.0.0 5kv261gjmq04c9.com
0.0.0.0 88chan.pw
0.0.0.0 new.915yzt.cn
0.0.0.0 tempinfo.96.lt
0.0.0.0 abdurantom.com
0.0.0.0 abtasty.net
0.0.0.0 analytics.modul.ac.at
0.0.0.0 acalvet.com
0.0.0.0 acbras.com
0.0.0.0 graph.accountkit.com
0.0.0.0 www.graph.accountkit.com
0.0.0.0 go.ad1data.com
0.0.0.0 metrics.adage.com
0.0.0.0 adaptivecss.org
0.0.0.0 ads30.adcolony.com
0.0.0.0 androidads23.adcolony.com
0.0.0.0 events3.adcolony.com
0.0.0.0 events3alt.adcolony.com
0.0.0.0 sdk.adincube.com
0.0.0.0 app.adjust.com
0.0.0.0 cdn.admitad-connect.com
0.0.0.0 macro.adnami.io
0.0.0.0 acdn.adnxs.com
0.0.0.0 prebid.adnxs.com
0.0.0.0 www.prebid.adnxs.com
0.0.0.0 sstats.adobe.com
0.0.0.0 adorebeauty.org
0.0.0.0 feedback.adrecover.com
0.0.0.0 adroitpmps.com
0.0.0.0 www.ads2live.com
0.0.0.0 adsflame.com
0.0.0.0 backend-ssp.adstudio.cloud
0.0.0.0 adtekmedia.com
0.0.0.0 400.route.to.adtracker.network
0.0.0.0 track.adtrue.com
0.0.0.0 dw.adyboh.com
0.0.0.0 wy.adyboh.com
0.0.0.0 adzerk.com
0.0.0.0 www.adzerk.com
0.0.0.0 ark.aeriagames.us
0.0.0.0 ahf4ycvea439tt9rq.site
0.0.0.0 aiisa.am
0.0.0.0 aircovid19virus.com
0.0.0.0 akashdayalgroups.com
0.0.0.0 www.akashdayalgroups.com
0.0.0.0 akibaol.com
0.0.0.0 alidnx.com
0.0.0.0 alliance4media.com
0.0.0.0 www.alliance4media.com
0.0.0.0 allmygoodlife.com
0.0.0.0 acrdb.alphonso.tv
0.0.0.0 ads.alphonso.tv
0.0.0.0 api.alphonso.tv
0.0.0.0 assets.alphonso.tv
0.0.0.0 bwlkup.alphonso.tv
0.0.0.0 clockskew.alphonso.tv
0.0.0.0 degea.alphonso.tv
0.0.0.0 demo.alphonso.tv
0.0.0.0 dimaria.alphonso.tv
0.0.0.0 insights.alphonso.tv
0.0.0.0 koudas.alphonso.tv
0.0.0.0 neymar.alphonso.tv
0.0.0.0 optout.alphonso.tv
0.0.0.0 ppjs.alphonso.tv
0.0.0.0 prov.alphonso.tv
0.0.0.0 proxy.alphonso.tv
0.0.0.0 rtbdev4.alphonso.tv
0.0.0.0 tn.alphonso.tv
0.0.0.0 tr.alphonso.tv
0.0.0.0 tvads.alphonso.tv
0.0.0.0 villa.alphonso.tv
0.0.0.0 web2.alphonso.tv
0.0.0.0 www.alphonso.tv
0.0.0.0 alpinehandlingsystems.com
0.0.0.0 creative.alxbgo.com
0.0.0.0 amarktflow.com
0.0.0.0 www.amarktflow.com
0.0.0.0 device-metrics-us.amazon.com
0.0.0.0 device-metrics-us-2.amazon.com
0.0.0.0 windowsphishingalert158.s3.amazonaws.com
0.0.0.0 amazonco.uk
0.0.0.0 www.amazonco.uk
0.0.0.0 amorluv.com
0.0.0.0 analytics-digit-in.cdn.ampproject.org
0.0.0.0 www.analytics-digit-in.cdn.ampproject.org
0.0.0.0 annualconsumersurvey.com
0.0.0.0 www.annualconsumersurvey.com
0.0.0.0 antivirus-covid19.site
0.0.0.0 aoredi.com
0.0.0.0 ap-ms.net
0.0.0.0 jhqvy.app.link
0.0.0.0 api.stats.appa.pe
0.0.0.0 dev.appboy.com
0.0.0.0 orion.iad.appboy.com
0.0.0.0 www.orion.iad.appboy.com
0.0.0.0 adsaccount.appcpi.net
0.0.0.0 cloud-based-service.us-south.cf.appdomain.cloud
0.0.0.0 app.appleadwords.net
0.0.0.0 www.applicationunificationcontroller.com
0.0.0.0 d.applovin.com
0.0.0.0 rt.applovin.com
0.0.0.0 events.appsflyer.com
0.0.0.0 register.appsflyer.com
0.0.0.0 t.appsflyer.com
0.0.0.0 as54rdxfzxs.appspot.com
0.0.0.0 asgh65tfsdxz.appspot.com
0.0.0.0 da032opzasz.appspot.com
0.0.0.0 dgyu536ds.appspot.com
0.0.0.0 eqit9pzsxz.appspot.com
0.0.0.0 gdh4szx.appspot.com
0.0.0.0 hg76ytsdas.appspot.com
0.0.0.0 hj67fadszx.appspot.com
0.0.0.0 hk567rsda.appspot.com
0.0.0.0 hksdf924pzxoias.appspot.com
0.0.0.0 iwe8pzosa.appspot.com
0.0.0.0 k87yfgsdaa.appspot.com
0.0.0.0 kga9szxosa.appspot.com
0.0.0.0 kj65rdasz.appspot.com
0.0.0.0 kj6787rsd.appspot.com
0.0.0.0 kr9apzxosa.appspot.com
0.0.0.0 nffdg43zx.appspot.com
0.0.0.0 oi8ytfzxa.appspot.com
0.0.0.0 ruw82qpzxas.appspot.com
0.0.0.0 tir94wepsdxox.appspot.com
0.0.0.0 tr54sdsazxas.appspot.com
0.0.0.0 tru465rsda.appspot.com
0.0.0.0 uy054eprsdoz.appspot.com
0.0.0.0 xasf32easzx.appspot.com
0.0.0.0 xoada0pzosa.appspot.com
0.0.0.0 ytuy45fxs.appspot.com
0.0.0.0 yu56tdfcxc.appspot.com
0.0.0.0 yuhfdwesaa.appspot.com
0.0.0.0 ad.apsalar.com
0.0.0.0 e-ssl.apsalar.com
0.0.0.0 analytics.archive.org
0.0.0.0 aresboot.xyz
0.0.0.0 arjoflor.com
0.0.0.0 arjoflos.com
0.0.0.0 arkonziv.com
0.0.0.0 www.arkonziv.com
0.0.0.0 armantark.com
0.0.0.0 armconsul.ru
0.0.0.0 artbbs.to
0.0.0.0 artizaa.com
0.0.0.0 cdn.auditude.com
0.0.0.0 auth-google.site
0.0.0.0 analytics.ff.avast.com
0.0.0.0 api.c.avazunativeads.com
0.0.0.0 aws-update.net
0.0.0.0 adv.axiatraders.com
0.0.0.0 www.adv.axiatraders.com
0.0.0.0 api.axiatraders.com
0.0.0.0 www.api.axiatraders.com
0.0.0.0 bid.axiatraders.com
0.0.0.0 www.bid.axiatraders.com
0.0.0.0 click.axiatraders.com
0.0.0.0 www.click.axiatraders.com
0.0.0.0 cvent.axiatraders.com
0.0.0.0 www.cvent.axiatraders.com
0.0.0.0 pub.axiatraders.com
0.0.0.0 www.pub.axiatraders.com
0.0.0.0 rotator.axiatraders.com
0.0.0.0 www.rotator.axiatraders.com
0.0.0.0 www.axiatraders.com
0.0.0.0 zamora.axiatraders.com
0.0.0.0 www.zamora.axiatraders.com
0.0.0.0 api.b2c.com
0.0.0.0 an.batmobi.net
0.0.0.0 gtsdk.batmobi.net
0.0.0.0 ploy.batmobi.net
0.0.0.0 api5.batmobil.net
0.0.0.0 beauty-tea.com
0.0.0.0 www.beauty-tea.com
0.0.0.0 0.0.0.0.beeglivesex.com
0.0.0.0 cdn.beginads.com
0.0.0.0 www.cdn.beginads.com
0.0.0.0 rotator.beginads.com
0.0.0.0 www.rotator.beginads.com
0.0.0.0 tracking.beginads.com
0.0.0.0 www.tracking.beginads.com
0.0.0.0 www.beginads.com
0.0.0.0 bergadimspower.com
0.0.0.0 berkesteermaster.com
0.0.0.0 www.best2017games.com
0.0.0.0 best2019-games-web4.com
0.0.0.0 bestprizesday3.life
0.0.0.0 besttus.com
0.0.0.0 de.betano.com
0.0.0.0 betpromo247.com
0.0.0.0 www.betpromo247.com
0.0.0.0 bidgear.com
0.0.0.0 platform.bidgear.com
0.0.0.0 www.bidgear.com
0.0.0.0 bigsharkmedia.com
0.0.0.0 bigtus.com
0.0.0.0 assets.bilsyndication.com
0.0.0.0 biltag.bilsyndication.com
0.0.0.0 services.bilsyndication.com
0.0.0.0 cdn.bitmedianetwork.com
0.0.0.0 engine.bitmedianetwork.com
0.0.0.0 bitstarz1.eu
0.0.0.0 bitstarz27.com
0.0.0.0 bitstarz28.com
0.0.0.0 blasze.com
0.0.0.0 blasze.tk
0.0.0.0 bmwforum.co
0.0.0.0 braincdn.org
0.0.0.0 hb.brainlyads.com
0.0.0.0 report.hb.brainlyads.com
0.0.0.0 brainschampions.com
0.0.0.0 client-analytics.braintreegateway.com
0.0.0.0 api.branch.io
0.0.0.0 brilns.com
0.0.0.0 brotherselectricco.com
0.0.0.0 bs.direct
0.0.0.0 analyticsapi.bsbportal.com
0.0.0.0 mi.btmods.net
0.0.0.0 us.btmods.net
0.0.0.0 bunnyland.cc
0.0.0.0 busyserviceinc.com
0.0.0.0 buzzclicks.com
0.0.0.0 promo.buzzclicks.com
0.0.0.0 www.promo.buzzclicks.com
0.0.0.0 rotator.buzzclicks.com
0.0.0.0 www.rotator.buzzclicks.com
0.0.0.0 www.buzzclicks.com
0.0.0.0 www.bywebsite.com
0.0.0.0 applog.camera360.com
0.0.0.0 camsoda.com
0.0.0.0 www.camsoda.com
0.0.0.0 camteens.to
0.0.0.0 candygirls.cc
0.0.0.0 ora.carlaarrabitoarchitetto.com
0.0.0.0 carnataldez.ml
0.0.0.0 carniferou.club
0.0.0.0 spy.cashnow.ee
0.0.0.0 xyz.cashnow.ee
0.0.0.0 castoola.com
0.0.0.0 cdn.castoola.com
0.0.0.0 discoveryad.castoola.tv
0.0.0.0 cdn.discoveryad.castoola.tv
0.0.0.0 1493361689.rsc.cdn77.org
0.0.0.0 cdnmage.com
0.0.0.0 ceromobi.club
0.0.0.0 www.ceromobi.club
0.0.0.0 ads.chacomedia.com
0.0.0.0 www.ads.chacomedia.com
0.0.0.0 www.chacomedia.com
0.0.0.0 chanekee.ga
0.0.0.0 chauksoa.net
0.0.0.0 cherryemoore.com
0.0.0.0 wawa.cleansite.us
0.0.0.0 clearcovid19virus.com
0.0.0.0 ase.clmbtech.com
0.0.0.0 www.ase.clmbtech.com
0.0.0.0 static.clmbtech.com
0.0.0.0 clooinfor.cf
0.0.0.0 closetlondon.org
0.0.0.0 d3dkhq0wwdwodv.cloudfront.net
0.0.0.0 d3lvir7538n0oi.cloudfront.net
0.0.0.0 api.cloudmobi.net
0.0.0.0 logger.cloudmobi.net
0.0.0.0 cmytuok.top
0.0.0.0 data.cnn.com
0.0.0.0 www.diptanuinfo.co.cc
0.0.0.0 adservice.google.co.in
0.0.0.0 retrak.co.ke
0.0.0.0 thaivictory.co.th
0.0.0.0 c.adskeeper.co.uk
0.0.0.0 www.myishop.co.uk
0.0.0.0 www2.myishop.co.uk
0.0.0.0 linux.cocoss2d.com
0.0.0.0 coffemokko.com
0.0.0.0 load.collegesmooch.com
0.0.0.0 tags.news.com.au
0.0.0.0 ventanasyaluminios.com.mx
0.0.0.0 www.ventanasyaluminios.com.mx
0.0.0.0 bacr.com.pk
0.0.0.0 www.bacr.com.pk
0.0.0.0 check-activity.com.ru
0.0.0.0 digitaltextile.com.ru
0.0.0.0 0202.com.tw
0.0.0.0 adservice.google.com.vn
0.0.0.0 com-auth.site
0.0.0.0 comericac.com
0.0.0.0 comilar-efferiff.icu
0.0.0.0 completesatisfaction.ltd
0.0.0.0 media.complex.com
0.0.0.0 comssite.com
0.0.0.0 consumerproductsusa.com
0.0.0.0 www.consumerproductsusa.com
0.0.0.0 contatoonline1.com
0.0.0.0 cws.conviva.com
0.0.0.0 www.cws.conviva.com
0.0.0.0 zee.cws.conviva.com
0.0.0.0 www.zee.cws.conviva.com
0.0.0.0 vrl.m.conviva.com
0.0.0.0 www.vrl.m.conviva.com
0.0.0.0 lp.cooktracking.com
0.0.0.0 coronabreath.com
0.0.0.0 corp-github.com
0.0.0.0 cosiloon.com
0.0.0.0 www.cpm20.com
0.0.0.0 crilns.com
0.0.0.0 rdi.eu.criteo.com
0.0.0.0 gum.criteo.com
0.0.0.0 linux.css2.com
0.0.0.0 cutebaitsforum.cc
0.0.0.0 www.cutebaitsforum.cc
0.0.0.0 cutecams.space
0.0.0.0 cutedolls.top
0.0.0.0 cutegirls.cc
0.0.0.0 cylenceprotect.com
0.0.0.0 d-and-h.com
0.0.0.0 www.d-and-h.com
0.0.0.0 asq.d6shiiwz.pw
0.0.0.0 dadsats.com
0.0.0.0 data-ero-advertising.com
0.0.0.0 www.data-ero-advertising.com
0.0.0.0 api.datatrics.com
0.0.0.0 api03.datatrics.com
0.0.0.0 api04.datatrics.com
0.0.0.0 app.datatrics.com
0.0.0.0 ecommerce.datatrics.com
0.0.0.0 images.datatrics.com
0.0.0.0 link.datatrics.com
0.0.0.0 magento01.datatrics.com
0.0.0.0 mautic.datatrics.com
0.0.0.0 network.datatrics.com
0.0.0.0 status.datatrics.com
0.0.0.0 tr.datatrics.com
0.0.0.0 tr-255418.datatrics.com
0.0.0.0 tr-255768.datatrics.com
0.0.0.0 tr-256089.datatrics.com
0.0.0.0 tr-op.datatrics.com
0.0.0.0 tr-reshift.datatrics.com
0.0.0.0 tr-v2.datatrics.com
0.0.0.0 tracker.datatrics.com
0.0.0.0 travel.datatrics.com
0.0.0.0 usersync.datatrics.com
0.0.0.0 woocommerce01.datatrics.com
0.0.0.0 daunteegyptian.pro
0.0.0.0 install.ddns.info
0.0.0.0 tab.dellrescue.com
0.0.0.0 deshmedia.com
0.0.0.0 devata.icu
0.0.0.0 dfgdgertdvdf.xyz
0.0.0.0 dfkcnyhd.nl
0.0.0.0 www.dianomi.com
0.0.0.0 analytics.lk.api.ditto.com
0.0.0.0 i1.dl-ad.com
0.0.0.0 ad.dnoticias.pt
0.0.0.0 xad.dnoticias.pt
0.0.0.0 ru.mst.dns-cloud.net
0.0.0.0 ctmail.dns-dns.com
0.0.0.0 brands.newst.dnsabr.com
0.0.0.0 dobre-programy.pl
0.0.0.0 www.dobre-programy.pl
0.0.0.0 dobre-programy.xyz
0.0.0.0 www.dobre-programy.xyz
0.0.0.0 dobreprogramy.pro
0.0.0.0 www.dobreprogramy.pro
0.0.0.0 dolodos.top
0.0.0.0 login.dotomi.com
0.0.0.0 4436230.fls.doubleclick.net
0.0.0.0 www.4436230.fls.doubleclick.net
0.0.0.0 4448269.fls.doubleclick.net
0.0.0.0 www.4448269.fls.doubleclick.net
0.0.0.0 doublepimpads.com
0.0.0.0 api.doubles.click
0.0.0.0 advertising-cdn.dpgmedia.cloud
0.0.0.0 dreamlist.top
0.0.0.0 dsw44z5igdmmbo.com
0.0.0.0 lay.dubya.us
0.0.0.0 goodattack.duckdns.org
0.0.0.0 megasena1.duckdns.org
0.0.0.0 phantom101.duckdns.org
0.0.0.0 exchange.dumb1.com
0.0.0.0 designer.dynamic-dns.net
0.0.0.0 dns-info.dyndns.pro
0.0.0.0 ftp.dns-info.dyndns.pro
0.0.0.0 loginwebmailnic.dynssl.com
0.0.0.0 ma1310-r.analytics.edgekey.net
0.0.0.0 ipv6-wildcard.applovin.com.edgekey.net
0.0.0.0 ma312-r.analytics.edgesuite.net
0.0.0.0 hosted.stats.com.edgesuite.net
0.0.0.0 edisonlee.net
0.0.0.0 eh8jq4cmq8j9g5.com
0.0.0.0 elegrina.com
0.0.0.0 elixmedia.com
0.0.0.0 www.elixmedia.com
0.0.0.0 enatimedia.com
0.0.0.0 ampmetrics.engadget.com
0.0.0.0 nexus.ensighten.com
0.0.0.0 environmentalist.com
0.0.0.0 eom-nv.com
0.0.0.0 api.eqmob.com
0.0.0.0 equilibrios.ga
0.0.0.0 ergensu.com
0.0.0.0 0latfee.ero-advertising.com
0.0.0.0 www.0latfee.ero-advertising.com
0.0.0.0 2baners.ero-advertising.com
0.0.0.0 www.2baners.ero-advertising.com
0.0.0.0 2ds.ero-advertising.com
0.0.0.0 www.2ds.ero-advertising.com
0.0.0.0 2fbanners.ero-advertising.com
0.0.0.0 www.2fbanners.ero-advertising.com
0.0.0.0 2fflatfee.ero-advertising.com
0.0.0.0 www.2fflatfee.ero-advertising.com
0.0.0.0 2fspeedclicks.ero-advertising.com
0.0.0.0 www.2fspeedclicks.ero-advertising.com
0.0.0.0 3ds.ero-advertising.com
0.0.0.0 www.3ds.ero-advertising.com
0.0.0.0 4anners.ero-advertising.com
0.0.0.0 www.4anners.ero-advertising.com
0.0.0.0 9ata.ero-advertising.com
0.0.0.0 www.9ata.ero-advertising.com
0.0.0.0 www.a.ero-advertising.com
0.0.0.0 aata.ero-advertising.com
0.0.0.0 www.aata.ero-advertising.com
0.0.0.0 acspaces.ero-advertising.com
0.0.0.0 www.acspaces.ero-advertising.com
0.0.0.0 ad1.ero-advertising.com
0.0.0.0 www.ad1.ero-advertising.com
0.0.0.0 ad2.ero-advertising.com
0.0.0.0 www.ad2.ero-advertising.com
0.0.0.0 s7.adaces.ero-advertising.com
0.0.0.0 www.s7.adaces.ero-advertising.com
0.0.0.0 adf.ero-advertising.com
0.0.0.0 www.adf.ero-advertising.com
0.0.0.0 adfpaces.ero-advertising.com
0.0.0.0 www.adfpaces.ero-advertising.com
0.0.0.0 ads1.ero-advertising.com
0.0.0.0 www.ads1.ero-advertising.com
0.0.0.0 adsances.ero-advertising.com
0.0.0.0 www.adsances.ero-advertising.com
0.0.0.0 adspacds.ero-advertising.com
0.0.0.0 www.adspacds.ero-advertising.com
0.0.0.0 adspaces2.ero-advertising.com
0.0.0.0 www.adspaces2.ero-advertising.com
0.0.0.0 adspaes.ero-advertising.com
0.0.0.0 www.adspaes.ero-advertising.com
0.0.0.0 adspages.ero-advertising.com
0.0.0.0 www.adspages.ero-advertising.com
0.0.0.0 adspcces.ero-advertising.com
0.0.0.0 www.adspcces.ero-advertising.com
0.0.0.0 adsspaces.ero-advertising.com
0.0.0.0 www.adsspaces.ero-advertising.com
0.0.0.0 adstaces.ero-advertising.com
0.0.0.0 www.adstaces.ero-advertising.com
0.0.0.0 adw.ero-advertising.com
0.0.0.0 www.adw.ero-advertising.com
0.0.0.0 adwpaces.ero-advertising.com
0.0.0.0 www.adwpaces.ero-advertising.com
0.0.0.0 afs.ero-advertising.com
0.0.0.0 www.afs.ero-advertising.com
0.0.0.0 analytics.ero-advertising.com
0.0.0.0 www.analytics.ero-advertising.com
0.0.0.0 anners.ero-advertising.com
0.0.0.0 www.anners.ero-advertising.com
0.0.0.0 ad0.api.ero-advertising.com
0.0.0.0 www.ad0.api.ero-advertising.com
0.0.0.0 ad1.api.ero-advertising.com
0.0.0.0 www.ad1.api.ero-advertising.com
0.0.0.0 ad2.api.ero-advertising.com
0.0.0.0 www.ad2.api.ero-advertising.com
0.0.0.0 ad3.api.ero-advertising.com
0.0.0.0 www.ad3.api.ero-advertising.com
0.0.0.0 ad4.api.ero-advertising.com
0.0.0.0 www.ad4.api.ero-advertising.com
0.0.0.0 ad7.api.ero-advertising.com
0.0.0.0 www.ad7.api.ero-advertising.com
0.0.0.0 ad8.api.ero-advertising.com
0.0.0.0 www.ad8.api.ero-advertising.com
0.0.0.0 ata.ero-advertising.com
0.0.0.0 www.ata.ero-advertising.com
0.0.0.0 ban3ers.ero-advertising.com
0.0.0.0 www.ban3ers.ero-advertising.com
0.0.0.0 ban4ers.ero-advertising.com
0.0.0.0 www.ban4ers.ero-advertising.com
0.0.0.0 banjers.ero-advertising.com
0.0.0.0 www.banjers.ero-advertising.com
0.0.0.0 bann12s.ero-advertising.com
0.0.0.0 www.bann12s.ero-advertising.com
0.0.0.0 bann13s.ero-advertising.com
0.0.0.0 www.bann13s.ero-advertising.com
0.0.0.0 bann14s.ero-advertising.com
0.0.0.0 www.bann14s.ero-advertising.com
0.0.0.0 bann1rs.ero-advertising.com
0.0.0.0 www.bann1rs.ero-advertising.com
0.0.0.0 banne2s.ero-advertising.com
0.0.0.0 www.banne2s.ero-advertising.com
0.0.0.0 banne3s.ero-advertising.com
0.0.0.0 www.banne3s.ero-advertising.com
0.0.0.0 banne4s.ero-advertising.com
0.0.0.0 www.banne4s.ero-advertising.com
0.0.0.0 banner.ero-advertising.com
0.0.0.0 www.banner.ero-advertising.com
0.0.0.0 ad0.banners.ero-advertising.com
0.0.0.0 www.ad0.banners.ero-advertising.com
0.0.0.0 ad1.banners.ero-advertising.com
0.0.0.0 www.ad1.banners.ero-advertising.com
0.0.0.0 ad2.banners.ero-advertising.com
0.0.0.0 www.ad2.banners.ero-advertising.com
0.0.0.0 ad3.banners.ero-advertising.com
0.0.0.0 www.ad3.banners.ero-advertising.com
0.0.0.0 ad4.banners.ero-advertising.com
0.0.0.0 www.ad4.banners.ero-advertising.com
0.0.0.0 ad5.banners.ero-advertising.com
0.0.0.0 www.ad5.banners.ero-advertising.com
0.0.0.0 ad6.banners.ero-advertising.com
0.0.0.0 www.ad6.banners.ero-advertising.com
0.0.0.0 ad7.banners.ero-advertising.com
0.0.0.0 www.ad7.banners.ero-advertising.com
0.0.0.0 ad8.banners.ero-advertising.com
0.0.0.0 www.ad8.banners.ero-advertising.com
0.0.0.0 www.banners.ero-advertising.com
0.0.0.0 banners1.ero-advertising.com
0.0.0.0 www.banners1.ero-advertising.com
0.0.0.0 www.banners2.ero-advertising.com
0.0.0.0 bannevs.ero-advertising.com
0.0.0.0 www.bannevs.ero-advertising.com
0.0.0.0 bavners2.ero-advertising.com
0.0.0.0 www.bavners2.ero-advertising.com
0.0.0.0 blatfee.ero-advertising.com
0.0.0.0 www.blatfee.ero-advertising.com
0.0.0.0 blog.ero-advertising.com
0.0.0.0 btw.ero-advertising.com
0.0.0.0 www.btw.ero-advertising.com
0.0.0.0 cata.ero-advertising.com
0.0.0.0 www.cata.ero-advertising.com
0.0.0.0 chat.ero-advertising.com
0.0.0.0 www.chat.ero-advertising.com
0.0.0.0 www.ero-adverising.com.ero-advertising.com
0.0.0.0 s10.histats.com.ero-advertising.com
0.0.0.0 www.s10.histats.com.ero-advertising.com
0.0.0.0 cyhners.ero-advertising.com
0.0.0.0 www.cyhners.ero-advertising.com
0.0.0.0 daaa.ero-advertising.com
0.0.0.0 www.daaa.ero-advertising.com
0.0.0.0 daea.ero-advertising.com
0.0.0.0 www.daea.ero-advertising.com
0.0.0.0 daia.ero-advertising.com
0.0.0.0 www.daia.ero-advertising.com
0.0.0.0 dat2.ero-advertising.com
0.0.0.0 www.dat2.ero-advertising.com
0.0.0.0 data2.ero-advertising.com
0.0.0.0 ad0.data2.ero-advertising.com
0.0.0.0 www.ad0.data2.ero-advertising.com
0.0.0.0 forums.data2.ero-advertising.com
0.0.0.0 www.forums.data2.ero-advertising.com
0.0.0.0 stats.data2.ero-advertising.com
0.0.0.0 www.stats.data2.ero-advertising.com
0.0.0.0 www.data2.ero-advertising.com
0.0.0.0 date.ero-advertising.com
0.0.0.0 www.date.ero-advertising.com
0.0.0.0 dats.ero-advertising.com
0.0.0.0 www.dats.ero-advertising.com
0.0.0.0 datt.ero-advertising.com
0.0.0.0 www.datt.ero-advertising.com
0.0.0.0 daua.ero-advertising.com
0.0.0.0 www.daua.ero-advertising.com
0.0.0.0 dava.ero-advertising.com
0.0.0.0 www.dava.ero-advertising.com
0.0.0.0 dawa.ero-advertising.com
0.0.0.0 www.dawa.ero-advertising.com
0.0.0.0 dbta.ero-advertising.com
0.0.0.0 www.dbta.ero-advertising.com
0.0.0.0 deta.ero-advertising.com
0.0.0.0 www.deta.ero-advertising.com
0.0.0.0 dtta.ero-advertising.com
0.0.0.0 www.dtta.ero-advertising.com
0.0.0.0 e-hpaces.ero-advertising.com
0.0.0.0 www.e-hpaces.ero-advertising.com
0.0.0.0 eedclicks.ero-advertising.com
0.0.0.0 www.eedclicks.ero-advertising.com
0.0.0.0 adspaces.ero-ades.ero-advertising.com
0.0.0.0 www.adspaces.ero-ades.ero-advertising.com
0.0.0.0 adspaces.ero-apaces.ero-advertising.com
0.0.0.0 www.adspaces.ero-apaces.ero-advertising.com
0.0.0.0 ers.ero-advertising.com
0.0.0.0 www.ers.ero-advertising.com
0.0.0.0 es.ero-advertising.com
0.0.0.0 www.es.ero-advertising.com
0.0.0.0 fanners.ero-advertising.com
0.0.0.0 www.fanners.ero-advertising.com
0.0.0.0 fata.ero-advertising.com
0.0.0.0 www.fata.ero-advertising.com
0.0.0.0 fhatfee.ero-advertising.com
0.0.0.0 www.fhatfee.ero-advertising.com
0.0.0.0 flashtest.ero-advertising.com
0.0.0.0 www.flashtest.ero-advertising.com
0.0.0.0 flatdee.ero-advertising.com
0.0.0.0 www.flatdee.ero-advertising.com
0.0.0.0 flatfae.ero-advertising.com
0.0.0.0 www.flatfae.ero-advertising.com
0.0.0.0 flatfea.ero-advertising.com
0.0.0.0 www.flatfea.ero-advertising.com
0.0.0.0 flatfee.ero-advertising.com
0.0.0.0 www.flatfee.ero-advertising.com
0.0.0.0 flw.ero-advertising.com
0.0.0.0 www.flw.ero-advertising.com
0.0.0.0 fnatfee.ero-advertising.com
0.0.0.0 www.fnatfee.ero-advertising.com
0.0.0.0 forum.ero-advertising.com
0.0.0.0 www.forum.ero-advertising.com
0.0.0.0 forums.ero-advertising.com
0.0.0.0 www.forums.ero-advertising.com
0.0.0.0 fpa.ero-advertising.com
0.0.0.0 ad3.fpa.ero-advertising.com
0.0.0.0 www.ad3.fpa.ero-advertising.com
0.0.0.0 ad5.fpa.ero-advertising.com
0.0.0.0 www.ad5.fpa.ero-advertising.com
0.0.0.0 www.fpa.ero-advertising.com
0.0.0.0 gata.ero-advertising.com
0.0.0.0 www.gata.ero-advertising.com
0.0.0.0 hata.ero-advertising.com
0.0.0.0 www.hata.ero-advertising.com
0.0.0.0 s10.hiadspaces.ero-advertising.com
0.0.0.0 www.s10.hiadspaces.ero-advertising.com
0.0.0.0 s10.hipaces.ero-advertising.com
0.0.0.0 www.s10.hipaces.ero-advertising.com
0.0.0.0 s10.his.ero-advertising.com
0.0.0.0 www.s10.his.ero-advertising.com
0.0.0.0 s10.hispaces.ero-advertising.com
0.0.0.0 www.s10.hispaces.ero-advertising.com
0.0.0.0 s10.histas.ero-advertising.com
0.0.0.0 www.s10.histas.ero-advertising.com
0.0.0.0 idspaces.ero-advertising.com
0.0.0.0 www.idspaces.ero-advertising.com
0.0.0.0 www.imads.ero-advertising.com
0.0.0.0 imeds.ero-advertising.com
0.0.0.0 www.imeds.ero-advertising.com
0.0.0.0 intext.ero-advertising.com
0.0.0.0 blog.intext.ero-advertising.com
0.0.0.0 www.blog.intext.ero-advertising.com
0.0.0.0 www.intext.ero-advertising.com
0.0.0.0 ioads.ero-advertising.com
0.0.0.0 www.ioads.ero-advertising.com
0.0.0.0 phpmyadmin.js.ero-advertising.com
0.0.0.0 www.phpmyadmin.js.ero-advertising.com
0.0.0.0 kds.ero-advertising.com
0.0.0.0 www.kds.ero-advertising.com
0.0.0.0 ad4.layerads.ero-advertising.com
0.0.0.0 www.ad4.layerads.ero-advertising.com
0.0.0.0 layers.ero-advertising.com
0.0.0.0 www.layers.ero-advertising.com
0.0.0.0 mata.ero-advertising.com
0.0.0.0 www.mata.ero-advertising.com
0.0.0.0 miami.ero-advertising.com
0.0.0.0 www.miami.ero-advertising.com
0.0.0.0 mobileads.ero-advertising.com
0.0.0.0 www.mobileads.ero-advertising.com
0.0.0.0 movieads.ero-advertising.com
0.0.0.0 www.movieads.ero-advertising.com
0.0.0.0 mx.ero-advertising.com
0.0.0.0 www.mx.ero-advertising.com
0.0.0.0 mybb.ero-advertising.com
0.0.0.0 www.mybb.ero-advertising.com
0.0.0.0 nata.ero-advertising.com
0.0.0.0 www.nata.ero-advertising.com
0.0.0.0 nl1.ero-advertising.com
0.0.0.0 www.nl1.ero-advertising.com
0.0.0.0 nl2.ero-advertising.com
0.0.0.0 www.nl2.ero-advertising.com
0.0.0.0 nners.ero-advertising.com
0.0.0.0 www.nners.ero-advertising.com
0.0.0.0 oata.ero-advertising.com
0.0.0.0 www.oata.ero-advertising.com
0.0.0.0 opads.ero-advertising.com
0.0.0.0 www.opads.ero-advertising.com
0.0.0.0 tcm.optica.ero-advertising.com
0.0.0.0 www.tcm.optica.ero-advertising.com
0.0.0.0 pagepeel.ero-advertising.com
0.0.0.0 www.pagepeel.ero-advertising.com
0.0.0.0 pata.ero-advertising.com
0.0.0.0 www.pata.ero-advertising.com
0.0.0.0 phpmyadmin.ero-advertising.com
0.0.0.0 www.phpmyadmin.ero-advertising.com
0.0.0.0 piwik.ero-advertising.com
0.0.0.0 www.piwik.ero-advertising.com
0.0.0.0 popacs.ero-advertising.com
0.0.0.0 www.popacs.ero-advertising.com
0.0.0.0 www.popads.ero-advertising.com
0.0.0.0 rata.ero-advertising.com
0.0.0.0 www.rata.ero-advertising.com
0.0.0.0 redirect.ero-advertising.com
0.0.0.0 www.redirect.ero-advertising.com
0.0.0.0 rs.ero-advertising.com
0.0.0.0 www.rs.ero-advertising.com
0.0.0.0 rs2.ero-advertising.com
0.0.0.0 www.rs2.ero-advertising.com
0.0.0.0 s.ero-advertising.com
0.0.0.0 www.s.ero-advertising.com
0.0.0.0 s10paces.ero-advertising.com
0.0.0.0 www.s10paces.ero-advertising.com
0.0.0.0 sin.ero-advertising.com
0.0.0.0 www.sin.ero-advertising.com
0.0.0.0 smtp.ero-advertising.com
0.0.0.0 www.smtp.ero-advertising.com
0.0.0.0 spaces.ero-advertising.com
0.0.0.0 www.spaces.ero-advertising.com
0.0.0.0 speed4cksa.ero-advertising.com
0.0.0.0 www.speed4cksa.ero-advertising.com
0.0.0.0 speedclecks.ero-advertising.com
0.0.0.0 www.speedclecks.ero-advertising.com
0.0.0.0 stats.speedclicks.ero-advertising.com
0.0.0.0 www.stats.speedclicks.ero-advertising.com
0.0.0.0 www.speedclicks.ero-advertising.com
0.0.0.0 speedclics.ero-advertising.com
0.0.0.0 www.speedclics.ero-advertising.com
0.0.0.0 speedlicks.ero-advertising.com
0.0.0.0 www.speedlicks.ero-advertising.com
0.0.0.0 speeuclicks.ero-advertising.com
0.0.0.0 www.speeuclicks.ero-advertising.com
0.0.0.0 stats.ero-advertising.com
0.0.0.0 www.stats.ero-advertising.com
0.0.0.0 tex.ero-advertising.com
0.0.0.0 www.tex.ero-advertising.com
0.0.0.0 thumb.ero-advertising.com
0.0.0.0 www.thumb.ero-advertising.com
0.0.0.0 thumbads.ero-advertising.com
0.0.0.0 www.thumbads.ero-advertising.com
0.0.0.0 ad2.thumbs.ero-advertising.com
0.0.0.0 www.ad2.thumbs.ero-advertising.com
0.0.0.0 ad4.thumbs.ero-advertising.com
0.0.0.0 www.ad4.thumbs.ero-advertising.com
0.0.0.0 ad7.thumbs.ero-advertising.com
0.0.0.0 www.ad7.thumbs.ero-advertising.com
0.0.0.0 thumbs2.ero-advertising.com
0.0.0.0 www.thumbs2.ero-advertising.com
0.0.0.0 tiumbs.ero-advertising.com
0.0.0.0 www.tiumbs.ero-advertising.com
0.0.0.0 topads.ero-advertising.com
0.0.0.0 www.topads.ero-advertising.com
0.0.0.0 tracking.ero-advertising.com
0.0.0.0 www.tracking.ero-advertising.com
0.0.0.0 typo3.ero-advertising.com
0.0.0.0 www.typo3.ero-advertising.com
0.0.0.0 umbs.ero-advertising.com
0.0.0.0 www.umbs.ero-advertising.com
0.0.0.0 users.ero-advertising.com
0.0.0.0 www.users.ero-advertising.com
0.0.0.0 wdata.ero-advertising.com
0.0.0.0 www.wdata.ero-advertising.com
0.0.0.0 steenbergen.web.ero-advertising.com
0.0.0.0 www.steenbergen.web.ero-advertising.com
0.0.0.0 wiki.ero-advertising.com
0.0.0.0 www.wiki.ero-advertising.com
0.0.0.0 wks.ero-advertising.com
0.0.0.0 www.wks.ero-advertising.com
0.0.0.0 wow.ero-advertising.com
0.0.0.0 www.wow.ero-advertising.com
0.0.0.0 wsw.ero-advertising.com
0.0.0.0 www.wsw.ero-advertising.com
0.0.0.0 wta.ero-advertising.com
0.0.0.0 www.wta.ero-advertising.com
0.0.0.0 ww2.ero-advertising.com
0.0.0.0 www.ww2.ero-advertising.com
0.0.0.0 wwa.ero-advertising.com
0.0.0.0 www.wwa.ero-advertising.com
0.0.0.0 wwbanners2.ero-advertising.com
0.0.0.0 www.wwbanners2.ero-advertising.com
0.0.0.0 wws.ero-advertising.com
0.0.0.0 www.wws.ero-advertising.com
0.0.0.0 www.ero-advertising.com
0.0.0.0 thumbs.xlaces.ero-advertising.com
0.0.0.0 www.thumbs.xlaces.ero-advertising.com
0.0.0.0 xn--adspace-kvg.ero-advertising.com
0.0.0.0 www.xn--adspace-kvg.ero-advertising.com
0.0.0.0 zww.ero-advertising.com
0.0.0.0 www.zww.ero-advertising.com
0.0.0.0 jocoly.esvnpe.com
0.0.0.0 etradesupply.org
0.0.0.0 secure.exoclick.com
0.0.0.0 syndication-evo.exoclick.com
0.0.0.0 www.exoclick.com
0.0.0.0 ludo.ezyro.com
0.0.0.0 www.face2trade.com
0.0.0.0 famartil.com
0.0.0.0 faymobi.com
0.0.0.0 a.faymobi.com
0.0.0.0 fdn-en.net
0.0.0.0 ads.feedly.com
0.0.0.0 feylibertad.org
0.0.0.0 fgddl9szdof7.com
0.0.0.0 fgoogle.com
0.0.0.0 www.fgoogle.com
0.0.0.0 findtus.com
0.0.0.0 firsttus.com
0.0.0.0 fjrfjrsitenchdnfjr.org
0.0.0.0 fjrikj.nl
0.0.0.0 rtb-adsterra.flshtrk.store
0.0.0.0 www.rtb-adsterra.flshtrk.store
0.0.0.0 foodandcot.com
0.0.0.0 fortnight.space
0.0.0.0 fortnitechat.site
0.0.0.0 api.fouanalytics.com
0.0.0.0 found.ee
0.0.0.0 free-dating-girls.online
0.0.0.0 freeadult.games
0.0.0.0 www.freeadult.games
0.0.0.0 freeallsafe.com
0.0.0.0 freegiftcards.co
0.0.0.0 freshdepor.com
0.0.0.0 frilns.com
0.0.0.0 frostdank.com
0.0.0.0 logs.gaana.com
0.0.0.0 gainblox.com
0.0.0.0 gamblerush.com
0.0.0.0 www.gamblerush.com
0.0.0.0 api.gameads.io
0.0.0.0 cdn.gameads.io
0.0.0.0 n.gameads.io
0.0.0.0 node.gameads.io
0.0.0.0 shapez.gameads.io
0.0.0.0 js34dc10.gamooga.com
0.0.0.0 log.getdropbox.com
0.0.0.0 getegroup.com
0.0.0.0 link.getmailspring.com
0.0.0.0 girlstofap.ga
0.0.0.0 www.girlstofap.ga
0.0.0.0 git-hub.co
0.0.0.0 githb.co
0.0.0.0 amerisleep.github.io
0.0.0.0 superlogout.github.io
0.0.0.0 www.superlogout.github.io
0.0.0.0 goodblock.gladly.io
0.0.0.0 www.goodblock.gladly.io
0.0.0.0 ad-dev.globalnoticias.pt
0.0.0.0 glt-app.net
0.0.0.0 glthub.co
0.0.0.0 glthub.net
0.0.0.0 glthube.app
0.0.0.0 glthubs.com
0.0.0.0 glthubs.net
0.0.0.0 glthubse.info
0.0.0.0 www.2468.go2cloud.org
0.0.0.0 goldenlion.sg
0.0.0.0 adservice.google.be
0.0.0.0 marketingplatform.google.com
0.0.0.0 smartlock.google.com
0.0.0.0 bot2.googlerenewals.net
0.0.0.0 linux2.googlerenewals.net
0.0.0.0 www.googletagmanager.com
0.0.0.0 cdn.googletoolservices.com
0.0.0.0 goooooooooogle.com
0.0.0.0 www.goooooooooogle.com
0.0.0.0 govaj.com
0.0.0.0 www.govrefund-uk.com
0.0.0.0 grabascoop.com
0.0.0.0 grabify.link
0.0.0.0 www.grabify.link
0.0.0.0 grandmods.com
0.0.0.0 greatmacsoft.tech
0.0.0.0 greattus.com
0.0.0.0 greenheartmed.org
0.0.0.0 ae.gsecondscreen.com
0.0.0.0 cdn-jp.gsecondscreen.com
0.0.0.0 gs.gw688.org
0.0.0.0 haus-pesjak.at
0.0.0.0 hdnewporn.com
0.0.0.0 heixbai.com
0.0.0.0 ussdns01.heketwe.com
0.0.0.0 78276.ussdns01.heketwe.com
0.0.0.0 78276.ussdns02.heketwe.com
0.0.0.0 ussdns04.heketwe.com
0.0.0.0 hitboom.net
0.0.0.0 www.hitcpm.com
0.0.0.0 hkrevolt.com
0.0.0.0 news.hkrevolt.com
0.0.0.0 tag.hockeycurve.com
0.0.0.0 dellgenius.hopto.org
0.0.0.0 gwiza1988.hopto.org
0.0.0.0 host-62-113-112-127.hosted-by-vdsina.ru
0.0.0.0 hostfleek.com
0.0.0.0 hostingfreelife.com
0.0.0.0 www.hostingfreelife.com
0.0.0.0 agl-intl.hotstar.com
0.0.0.0 fp-analytics.hotstar.com
0.0.0.0 hb-analytics.hotstar.com
0.0.0.0 segment.hotstar.com
0.0.0.0 us-west-2.kinesis.hpanalytics.net
0.0.0.0 hpphhpph.com
0.0.0.0 hpyrdr.com
0.0.0.0 0.0.0.0.hpyrdr.com
0.0.0.0 creative.hpyrdr.com
0.0.0.0 0.0.0.0.creative.hpyrdr.com
0.0.0.0 bmy.hqoohoa.com
0.0.0.0 hrtya.com
0.0.0.0 i-sharecloud.com
0.0.0.0 tracking.i2w.io
0.0.0.0 tracking-thirdparty.i2w.io
0.0.0.0 l3wpk9kmumodtkr8.ibmassist.com
0.0.0.0 www.analytics.icons8.com
0.0.0.0 apps.id.net
0.0.0.0 www.apps.id.net
0.0.0.0 id451295.com
0.0.0.0 login.yahoo.com.id451295.com
0.0.0.0 id6589.com
0.0.0.0 login.yahoo.com.id6589.com
0.0.0.0 e.mail.ru.consumer.id6589.com
0.0.0.0 iexploreservice.com
0.0.0.0 peacelist.ignorelist.com
0.0.0.0 ikunselt.com
0.0.0.0 advertisements.immowebapi.be
0.0.0.0 indiaonclick.com
0.0.0.0 www.indiaonclick.com
0.0.0.0 ibeat.indiatimes.com
0.0.0.0 init.sh
0.0.0.0 analytics.inlinemanual.com
0.0.0.0 sdktm.w.inmobi.com
0.0.0.0 innovativemasonry.net
0.0.0.0 inps-informa.online
0.0.0.0 libjs.inquirerjs.com
0.0.0.0 libjss.inquirerjs.com
0.0.0.0 instaboom-hello.site
0.0.0.0 collect.installeranalytics.com
0.0.0.0 instui201.info
0.0.0.0 cdn.insurads.com
0.0.0.0 messaging.insurads.com
0.0.0.0 services.insurads.com
0.0.0.0 invoke.ml
0.0.0.0 iplogger.com
0.0.0.0 www.iplogger.com
0.0.0.0 www.iplogger.org
0.0.0.0 iplogger.ru
0.0.0.0 www.iplogger.ru
0.0.0.0 www.ipuss.tv
0.0.0.0 is.sh
0.0.0.0 italiapagamen.com
0.0.0.0 iuiuytrytrewrqw.gq
0.0.0.0 jailbaitclub.top
0.0.0.0 jailbaits.top
0.0.0.0 www.jailbsearch.xyz
0.0.0.0 8uc1.jave.xyz
0.0.0.0 8uch.jave.xyz
0.0.0.0 jav.jave.xyz
0.0.0.0 sys.jave.xyz
0.0.0.0 xz.jave.xyz
0.0.0.0 jbcam.cz
0.0.0.0 jbcapsforum.tk
0.0.0.0 jbvmix.link
0.0.0.0 jeddahcrumbly.com
0.0.0.0 jewsondirect.com
0.0.0.0 jfnnrjfjrfjr.com
0.0.0.0 jfraction.al
0.0.0.0 jnachb.com
0.0.0.0 joinmy.site
0.0.0.0 stats.jpush.cn
0.0.0.0 js-cloud.com
0.0.0.0 jcdn.jsoid.com
0.0.0.0 k5market.com
0.0.0.0 wsus.kasperskyantivirus.net
0.0.0.0 kcnnrj.cn
0.0.0.0 kittygfs.cc
0.0.0.0 kittyland.to
0.0.0.0 knalc.com
0.0.0.0 koapkmobi.com
0.0.0.0 www.koapkmobi.com
0.0.0.0 korfo.org
0.0.0.0 event.ksosoft.com
0.0.0.0 kt5850pjz0.com
0.0.0.0 kuikdelivery.com
0.0.0.0 pull-3045.kxcdn.com
0.0.0.0 www.pull-3045.kxcdn.com
0.0.0.0 ladsup.com
0.0.0.0 laingriz15.live
0.0.0.0 lakusdvroa.com
0.0.0.0 latamdcs.com
0.0.0.0 wc-tracking.lavasoft.com
0.0.0.0 leancoding.co
0.0.0.0 lecap-services.fr
0.0.0.0 www.lecap-services.fr
0.0.0.0 ledampenergy.net
0.0.0.0 tracking.lenzmx.com
0.0.0.0 samsung.apps.linkpc.net
0.0.0.0 lismcanalys.fun
0.0.0.0 nexus.officeapps.live.com
0.0.0.0 nexusrules.officeapps.live.com
0.0.0.0 livechatinc.org
0.0.0.0 cradver.livejasmin.com
0.0.0.0 crt.livejasmin.com
0.0.0.0 livetus.com
0.0.0.0 llink.site
0.0.0.0 manifest.localytics.com
0.0.0.0 profile.localytics.com
0.0.0.0 analytics.logsss.com
0.0.0.0 londontea.net
0.0.0.0 loneeaglerecords.com
0.0.0.0 accounts.longmusic.com
0.0.0.0 exchange.longmusic.com
0.0.0.0 y3dx36f6.love6d.com
0.0.0.0 magejavascripts.com
0.0.0.0 magescripts.pw
0.0.0.0 magesecuritys.com
0.0.0.0 mahalowood.com
0.0.0.0 mainmainncjnrjpbn.fr
0.0.0.0 mainpbnpower.info
0.0.0.0 mainsite.in
0.0.0.0 mainsite.us
0.0.0.0 makmoney.club
0.0.0.0 ctt.pt-particulares.mandalozz.com
0.0.0.0 manygoodnews.com
0.0.0.0 maper.info
0.0.0.0 march262020.com
0.0.0.0 marchadvertisingnetwork10.com
0.0.0.0 marchadvertisingnetwork5.com
0.0.0.0 marchadvertisingnetwork6.com
0.0.0.0 marchadvertisingnetwork7.com
0.0.0.0 marchadvertisingnetwork8.com
0.0.0.0 marchadvertisingnetwork9.com
0.0.0.0 marketium.com
0.0.0.0 masikini.com
0.0.0.0 matchmyip.com
0.0.0.0 www.matchmyip.com
0.0.0.0 stat-c.maxthon.com
0.0.0.0 mcloudjs.com
0.0.0.0 mcsoft365.com
0.0.0.0 mechat.info
0.0.0.0 mediadirectx.com
0.0.0.0 dev.medialogistics2020.ca
0.0.0.0 enabler.datalake.mediaset.it
0.0.0.0 hbbtv.mediaset.net
0.0.0.0 medsource.top
0.0.0.0 browser.pipe.aria.microsoft.com
0.0.0.0 mobile.pipe.aria.microsoft.com
0.0.0.0 v10c.events.data.microsoft.com
0.0.0.0 web.vortex.data.microsoft.com
0.0.0.0 sqm.telemetry.microsoft.com
0.0.0.0 telecommand.telemetry.microsoft.com
0.0.0.0 watson.telemetry.microsoft.com
0.0.0.0 ns1.microsoftonlines.net
0.0.0.0 ns2.microsoftonlines.net
0.0.0.0 update.microsoftonlines.net
0.0.0.0 mioniough.com
0.0.0.0 saemaeul.mireene.com
0.0.0.0 misshaus.org
0.0.0.0 sa.api.intl.miui.com
0.0.0.0 api.brs.intl.miui.com
0.0.0.0 api.collect.data.intl.miui.com
0.0.0.0 adv.sec.intl.miui.com
0.0.0.0 api.sec.intl.miui.com
0.0.0.0 authbe.sec.intl.miui.com
0.0.0.0 data.sec.intl.miui.com
0.0.0.0 flash.sec.intl.miui.com
0.0.0.0 api.setting.intl.miui.com
0.0.0.0 tracking.intl.miui.com
0.0.0.0 cc.sys.miui.com
0.0.0.0 ccc.sys.miui.com
0.0.0.0 geofence.sys.miui.com
0.0.0.0 fcanr.tracking.miui.com
0.0.0.0 adtracker.mkjigsaw.com
0.0.0.0 advert.puzzles.mkjigsaw.com
0.0.0.0 perf.mmstat.com
0.0.0.0 sg.mmstat.com
0.0.0.0 mobile-app-market-here6.life
0.0.0.0 cachecdn.moegoo.com
0.0.0.0 api.moengage.com
0.0.0.0 apiv2.moengage.com
0.0.0.0 apiv3.moengage.com
0.0.0.0 cdn.moengage.com
0.0.0.0 moeskin.com
0.0.0.0 in-gmtdmp.mookie1.com
0.0.0.0 market.moonicorn.network
0.0.0.0 analytics.mopub.com
0.0.0.0 movbmog.ga
0.0.0.0 nativesdks.mparticle.com
0.0.0.0 mrvineforum.pk
0.0.0.0 msdtcupdate.com
0.0.0.0 murthydigitals.com
0.0.0.0 cdn.mxpnl.com
0.0.0.0 compdate.my03.com
0.0.0.0 etetdc4ed-exhausted-lizard-tc.mybluemix.net
0.0.0.0 tu4dff-reflective-shark.eu-gb.mybluemix.net
0.0.0.0 ty65xcc-smart-manatee.mybluemix.net
0.0.0.0 ut45dfx-sweet-nyala.mybluemix.net
0.0.0.0 y56gcvx-lean-bear-up.mybluemix.net
0.0.0.0 www.ads.mp.mydas.mobi
0.0.0.0 lp.mydirtyhobby.com
0.0.0.0 byfleur.myftp.org
0.0.0.0 mynavyfedral.org
0.0.0.0 mynevyfedera1.org
0.0.0.0 myornamenti.com
0.0.0.0 www.myornamenti.com
0.0.0.0 mypiltow.com
0.0.0.0 ihracat.myq-see.com
0.0.0.0 myservicebooster.com
0.0.0.0 myservicebooster.net
0.0.0.0 myserviceconnect.net
0.0.0.0 mywot.com
0.0.0.0 www.mywot.com
0.0.0.0 mywot.net
0.0.0.0 www.mywot.net
0.0.0.0 n13x4nfw8frika.com
0.0.0.0 namilh.com
0.0.0.0 navyfedara1.org
0.0.0.0 navyfederai.org
0.0.0.0 nbf9b5aurl.com
0.0.0.0 pixel.nc0.co
0.0.0.0 ncjjfn.org
0.0.0.0 ndjambo.com
0.0.0.0 newlimitedoffer.com
0.0.0.0 www.newlimitedoffer.com
0.0.0.0 ssl.newsofnp.com
0.0.0.0 newtontool.ca
0.0.0.0 58680dd9.ngrok.io
0.0.0.0 6735a55d.ngrok.io
0.0.0.0 nicemice.cf
0.0.0.0 www.nicemice.cf
0.0.0.0 sdfaswaed2.nokiadns.com
0.0.0.0 norulless.com
0.0.0.0 novmintservices.com
0.0.0.0 ntaryan.com
0.0.0.0 nvfjvtntt.cf
0.0.0.0 o5team.com
0.0.0.0 oakandfort.org
0.0.0.0 telemetry.firstpartyapps.oaspapps.com
0.0.0.0 oawyr.com
0.0.0.0 oawyri.com
0.0.0.0 ddl.okgoodmobi.com
0.0.0.0 pixel.onaudience.com
0.0.0.0 answerstedhctbek.onion.pet
0.0.0.0 darkfailllnkf4vf.onion.pet
0.0.0.0 dreadditevelidot.onion.pet
0.0.0.0 jthnx5wyvjvzsxtu.onion.pet
0.0.0.0 qlqd5zqefmkcr34a.onion.pet
0.0.0.0 runionv62ul3roit.onion.pet
0.0.0.0 rutorc6mqdinc4cz.onion.pet
0.0.0.0 thehub7xbw4dc5r2.onion.pet
0.0.0.0 torgatedga35slsu.onion.pet
0.0.0.0 torrentzwealmisr.onion.pet
0.0.0.0 uj3wazyk5u4hnvtk.onion.pet
0.0.0.0 vkphotofqgmmu63j.onion.pet
0.0.0.0 xmh57jrzrnw6insl.onion.pet
0.0.0.0 zqktlwiuavvvqqt4ybvgvi7tyo4hjl5xgfuvpdf6otjiycgwqbym2qad.onion.pet
0.0.0.0 zzz.onion.pet
0.0.0.0 h-sdk.online-metrix.net
0.0.0.0 imbc.onthewifi.com
0.0.0.0 opengapps.com
0.0.0.0 ads1.opensubtitles.org
0.0.0.0 taboola-d.openx.net
0.0.0.0 284419414.log.optimizely.com
0.0.0.0 www.284419414.log.optimizely.com
0.0.0.0 logx.optimizely.com
0.0.0.0 banner.org.ua
0.0.0.0 pdupdate.organiccrap.com
0.0.0.0 orzk.net
0.0.0.0 osheoufhusheoghuesd.ru
0.0.0.0 kdwontyraqdswlqm.ossrescue.com
0.0.0.0 pamsg.online
0.0.0.0 www.pamsg.online
0.0.0.0 parnerimcarpich.com
0.0.0.0 srv.pixel.parsely.com
0.0.0.0 www.srv.pixel.parsely.com
0.0.0.0 paypaypay.org
0.0.0.0 pbndswdswyhdjfn.com
0.0.0.0 pbnkcnjfnikjserv.org
0.0.0.0 pbnncdnkcnncjikj.org
0.0.0.0 www.performanceadexchange.com
0.0.0.0 pervas.top
0.0.0.0 petitelady.top
0.0.0.0 pf4y2a54hx.com
0.0.0.0 phamchilong.com
0.0.0.0 www.analytics.picsart.com
0.0.0.0 pinkcamforum.cc
0.0.0.0 pkmkkjwknvf.com
0.0.0.0 plaimedia.com
0.0.0.0 www.plaimedia.com
0.0.0.0 xml.plaimedia.com
0.0.0.0 www.playamo.com
0.0.0.0 playamo30.com
0.0.0.0 www.playamo30.com
0.0.0.0 plkyjbew.com
0.0.0.0 analytics.pokki.com
0.0.0.0 analysis.polarisoffice.com
0.0.0.0 powerad.ai
0.0.0.0 powersite.nl
0.0.0.0 powersitemainservfjr.org
0.0.0.0 l-v1.presage.io
0.0.0.0 pl-v2.presage.io
0.0.0.0 2019-ncov-2020.com.preview.services
0.0.0.0 primecaviar.com
0.0.0.0 www.prioritisemyhealth.com
0.0.0.0 privacyassistant.net
0.0.0.0 ext.privacyassistant.net
0.0.0.0 www.ext.privacyassistant.net
0.0.0.0 www.privacyassistant.net
0.0.0.0 ads.proc.cc
0.0.0.0 www.ads.proc.cc
0.0.0.0 prodealscenter.com
0.0.0.0 www.protectmobiletechieai.club
0.0.0.0 getadobeflashdownloader.proxydns.com
0.0.0.0 psozyhotho.pro
0.0.0.0 psserviceonline.com
0.0.0.0 api.pubnative.net
0.0.0.0 hotstar.pubnub.net
0.0.0.0 www.hotstar.pubnub.net
0.0.0.0 api.purpleads.io
0.0.0.0 cdn.purpleads.io
0.0.0.0 creatives.purpleads.io
0.0.0.0 pushedwebnews.com
0.0.0.0 www.pushedwebnews.com
0.0.0.0 pussysaga.com
0.0.0.0 www.pussysaga.com
0.0.0.0 pl15117601.pvclouds.com
0.0.0.0 pl15209890.pvclouds.com
0.0.0.0 qpfhd.com
0.0.0.0 rules.quantcount.com
0.0.0.0 api.quantumgraph.com
0.0.0.0 users.quantumgraph.com
0.0.0.0 queensiteforapp.com
0.0.0.0 g0l32.queensiteforapp.com
0.0.0.0 quickcash-system.com
0.0.0.0 quickmessage.us
0.0.0.0 log-ads.r7.com
0.0.0.0 asq.r77vh0.pw
0.0.0.0 rc-room.com
0.0.0.0 pixel.realclever.com
0.0.0.0 events.redditmedia.com
0.0.0.0 www.redshell.io
0.0.0.0 remove-ads.xyz
0.0.0.0 renovatesystem.com
0.0.0.0 rereddit.com
0.0.0.0 www.rereddit.com
0.0.0.0 resumersvo.fun
0.0.0.0 rjmwqf.com
0.0.0.0 rmagent.xyz
0.0.0.0 roboinside.me
0.0.0.0 api.rollbar.com
0.0.0.0 ronswank.com
0.0.0.0 rs.sh
0.0.0.0 rsa.pub
0.0.0.0 rstmir.com
0.0.0.0 bidder.rtk.io
0.0.0.0 bucket.rtk.io
0.0.0.0 console.rtk.io
0.0.0.0 grow.rtk.io
0.0.0.0 hexagram.rtk.io
0.0.0.0 jita.rtk.io
0.0.0.0 login.rtk.io
0.0.0.0 media.rtk.io
0.0.0.0 sync.rtk.io
0.0.0.0 thor.rtk.io
0.0.0.0 nj.thor.rtk.io
0.0.0.0 nyc.thor.rtk.io
0.0.0.0 sfo.thor.rtk.io
0.0.0.0 uk.thor.rtk.io
0.0.0.0 uk2.thor.rtk.io
0.0.0.0 www.rtk.io
0.0.0.0 mt.rtmark.net
0.0.0.0 my.rtmark.net
0.0.0.0 token.rubiconproject.com
0.0.0.0 runative-syndicate.com
0.0.0.0 pixel.runative-syndicate.com
0.0.0.0 s.sh
0.0.0.0 log-1.samsungacr.com
0.0.0.0 log-2.samsungacr.com
0.0.0.0 log-3.samsungacr.com
0.0.0.0 log-ingestion.samsungacr.com
0.0.0.0 log-ingestion-eu.samsungacr.com
0.0.0.0 ad.samsungadhub.com
0.0.0.0 rd.samsungadhub.com
0.0.0.0 ads.samsungads.com
0.0.0.0 config.samsungads.com
0.0.0.0 events.samsungads.com
0.0.0.0 oempprd.samsungcloudsolution.com
0.0.0.0 vdterms.samsungcloudsolution.com
0.0.0.0 oempprd.samsungcloudsolution.net
0.0.0.0 invitation.samsungiotcloud.com
0.0.0.0 gld.samsungosp.com
0.0.0.0 osb-ussvc.samsungqbe.com
0.0.0.0 www.saumweb.com
0.0.0.0 udm.scorecardresearch.com
0.0.0.0 seemascakes.com
0.0.0.0 cdn-settings.segment.com
0.0.0.0 semasa.icu
0.0.0.0 embed.sendtonews.com
0.0.0.0 www.embed.sendtonews.com
0.0.0.0 ads2.servebom.com
0.0.0.0 ads.servenobid.com
0.0.0.0 public.servenobid.com
0.0.0.0 ubntrooters.serveuser.com
0.0.0.0 root20system20macosxdriver.serveusers.com
0.0.0.0 service-updater.com
0.0.0.0 servicesbooster.com
0.0.0.0 servicesecurity.org
0.0.0.0 serviceshelpers.com
0.0.0.0 serviceupdates.net
0.0.0.0 serviceuphelper.com
0.0.0.0 servicosfcporto.com
0.0.0.0 serviziopostale.site
0.0.0.0 servsave.com
0.0.0.0 www.servsave.com
0.0.0.0 sex-and-flirt.com
0.0.0.0 www.sex-and-flirt.com
0.0.0.0 shop-rnib.org
0.0.0.0 sionicmedia.com
0.0.0.0 sirdexs.com
0.0.0.0 specialsections.siteseer.ca
0.0.0.0 sitesite.cn
0.0.0.0 skategirlchina.com
0.0.0.0 skinstrip.net
0.0.0.0 slack-app.net
0.0.0.0 snapcamsforum.cc
0.0.0.0 log.snapdeal.com
0.0.0.0 api.ad.snappea.com
0.0.0.0 msmetrics.ws.sonos.com
0.0.0.0 soperson.com
0.0.0.0 lead.soperson.com
0.0.0.0 www.soperson.com
0.0.0.0 yun-static.soperson.com
0.0.0.0 sophosdefence.com
0.0.0.0 ww2.sponsorflyr.com
0.0.0.0 sportsinteraction.com
0.0.0.0 www.sportsinteraction.com
0.0.0.0 spottyfly.com
0.0.0.0 srvkcnyhd.org
0.0.0.0 sso-github.com
0.0.0.0 stagolk.com
0.0.0.0 c2i-cdn.startappnetwork.com
0.0.0.0 dts.startappservice.com
0.0.0.0 events.startappservice.com
0.0.0.0 imp.startappservice.com
0.0.0.0 init.startappservice.com
0.0.0.0 req.startappservice.com
0.0.0.0 beacon.statful.com
0.0.0.0 hosted.stats.com
0.0.0.0 montrealgazette.stats.com
0.0.0.0 stealthedeal.com
0.0.0.0 stillval.com
0.0.0.0 stopify.co
0.0.0.0 exp100.strangled.net
0.0.0.0 ux6p.strangled.net
0.0.0.0 sts-github.com
0.0.0.0 supload.com
0.0.0.0 www.supload.com
0.0.0.0 zabbix.symanteprotection.com
0.0.0.0 15.taboola.com
0.0.0.0 convhkmp.taboola.com
0.0.0.0 convlatbmp.taboola.com
0.0.0.0 imprhkmp.taboola.com
0.0.0.0 imprlatbmp.taboola.com
0.0.0.0 match.taboola.com
0.0.0.0 opps.taboola.com
0.0.0.0 vidutils.taboola.com
0.0.0.0 wf.taboola.com
0.0.0.0 takehotprizzes3.live
0.0.0.0 talk99.cn
0.0.0.0 www.talk99.cn
0.0.0.0 api.taplytics.com
0.0.0.0 last.tax-lab.net
0.0.0.0 tdreg.icu
0.0.0.0 tdreg.top
0.0.0.0 teddygirls.cc
0.0.0.0 www.teddygirls.cc
0.0.0.0 teenclubforum.pw
0.0.0.0 track.tenjin.io
0.0.0.0 theannoyingsite.com
0.0.0.0 www.theannoyingsite.com
0.0.0.0 thebestgame2020.com
0.0.0.0 thedemocraticpost.com
0.0.0.0 thediscoveryrun.com
0.0.0.0 thiccnigga.me
0.0.0.0 thumbeks.com
0.0.0.0 m.topiccore.com
0.0.0.0 topservicehelper.com
0.0.0.0 topservicesbooster.com
0.0.0.0 topservicesecurity.com
0.0.0.0 topservicesupdate.com
0.0.0.0 topservicesupdates.com
0.0.0.0 torrenty-org.pl
0.0.0.0 www.torrenty-org.pl
0.0.0.0 track-js.link
0.0.0.0 tradersbrokers.com
0.0.0.0 www.tradersbrokers.com
0.0.0.0 pub.trads.io
0.0.0.0 trafficmoose.com
0.0.0.0 trafforsrv.com
0.0.0.0 www.trafforsrv.com
0.0.0.0 www.treasuredata.com
0.0.0.0 trilns.com
0.0.0.0 ads5.truecaller.com
0.0.0.0 batchlogging4.truecaller.com
0.0.0.0 tsl-github.com
0.0.0.0 cdn.tsyndicate.com
0.0.0.0 ttwitter.com
0.0.0.0 www.ttwitter.com
0.0.0.0 cross-promos.tuanguwen.com
0.0.0.0 word-res.tuanguwen.com
0.0.0.0 word-v1.tuanguwen.com
0.0.0.0 castoola.tv.lan
0.0.0.0 tvpage.com
0.0.0.0 a.tvpage.com
0.0.0.0 api.tvpage.com
0.0.0.0 appcdn.tvpage.com
0.0.0.0 cdnjs.tvpage.com
0.0.0.0 mktg.tvpage.com
0.0.0.0 sitecdn.tvpage.com
0.0.0.0 stage.tvpage.com
0.0.0.0 www.stage.tvpage.com
0.0.0.0 www.tvpage.com
0.0.0.0 videos-bleepingcomputers-com.tvpagecdn.com
0.0.0.0 tvmds.tvpassport.com
0.0.0.0 www.tvmds.tvpassport.com
0.0.0.0 www.tvpassport.com
0.0.0.0 tweengirlsforum.pk
0.0.0.0 landings.twin.com
0.0.0.0 twitter.cm
0.0.0.0 applog.uc.cn
0.0.0.0 gj.applog.uc.cn
0.0.0.0 feedback.uc.cn
0.0.0.0 gjapplog.uc.cn
0.0.0.0 gj.track.uc.cn
0.0.0.0 woodpecker.uc.cn
0.0.0.0 gjtrack.ucweb.com
0.0.0.0 insight.ucweb.com
0.0.0.0 adn.insight.ucweb.com
0.0.0.0 logserver.insight.ucweb.com
0.0.0.0 sdkupgrade.insight.ucweb.com
0.0.0.0 instory-log.ucnews.ucweb.com
0.0.0.0 click.union.ucweb.com
0.0.0.0 trace.svc.ui.com
0.0.0.0 ukcoffe.com
0.0.0.0 ultraeventgroup.com
0.0.0.0 alog.umeng.com
0.0.0.0 alog.umengcloud.com
0.0.0.0 unclebillswv.com
0.0.0.0 linux.unitys3d.com
0.0.0.0 updatemanagir.us
0.0.0.0 updatesecure.pro
0.0.0.0 device-api.urbanairship.com
0.0.0.0 urldelivery.com
0.0.0.0 usapglobal.usapglobal.org
0.0.0.0 cdn.usefathom.com
0.0.0.0 collect.usefathom.com
0.0.0.0 img3.usefathom.com
0.0.0.0 api.userstyles.org
0.0.0.0 cdn5.userzoom.com
0.0.0.0 akr.usesfathom.com
0.0.0.0 archsmarter.usesfathom.com
0.0.0.0 butshesagirl.usesfathom.com
0.0.0.0 gateguardian.usesfathom.com
0.0.0.0 jsfiddle.usesfathom.com
0.0.0.0 justin.usesfathom.com
0.0.0.0 paleoleap.usesfathom.com
0.0.0.0 perroverde.usesfathom.com
0.0.0.0 stats.usesfathom.com
0.0.0.0 log.apk.v-mate.mobi
0.0.0.0 vamsoupowoa.com
0.0.0.0 verywellfitnesse.com
0.0.0.0 vhguyeu.ml
0.0.0.0 serconsole.vicp.cc
0.0.0.0 in-star.videoplaza.tv
0.0.0.0 www.in-star.videoplaza.tv
0.0.0.0 in-starlive.videoplaza.tv
0.0.0.0 in-starlive-preroll.videoplaza.tv
0.0.0.0 in-viacom18.videoplaza.tv
0.0.0.0 www.in-viacom18.videoplaza.tv
0.0.0.0 service.videoplaza.tv
0.0.0.0 www.service.videoplaza.tv
0.0.0.0 viphostindustries.info
0.0.0.0 vipmodels.tv
0.0.0.0 vitlescaux.com
0.0.0.0 adtrack.voicestar.com
0.0.0.0 vosmas.icu
0.0.0.0 vpn4test.net
0.0.0.0 vtoras.top
0.0.0.0 bur.vueleslie.com
0.0.0.0 walletgear.org
0.0.0.0 ws38.watashinonegai.ru
0.0.0.0 skype-online0345.web.app
0.0.0.0 c.webengage.com
0.0.0.0 ssl.widgets.webengage.com
0.0.0.0 wsdk-files.webengage.com
0.0.0.0 www.webhaat.com
0.0.0.0 webpagetest.net
0.0.0.0 websitecompany.org
0.0.0.0 www.websitecompany.org
0.0.0.0 mc.webvisor.org
0.0.0.0 sport.wikaba.com
0.0.0.0 wind.windmilldrops.com
0.0.0.0 ns1.windowsdefende.com
0.0.0.0 ns2.windowsdefende.com
0.0.0.0 dabmaster.wm01.to
0.0.0.0 postmediamontrealgazette2.files.wordpress.com
0.0.0.0 www.postmediamontrealgazette2.files.wordpress.com
0.0.0.0 nlocalhost.wordtheminer.com
0.0.0.0 wor.wordtheminer.com
0.0.0.0 hotstar.worldgravity.com
0.0.0.0 worldtus.com
0.0.0.0 ad.wynk.in
0.0.0.0 wzrkt.com
0.0.0.0 eu1-spiky.wzrkt.com
0.0.0.0 cl-ad.x-flow.app
0.0.0.0 api.ad.xiaomi.com
0.0.0.0 cdn.ad.xiaomi.com
0.0.0.0 e.ad.xiaomi.com
0.0.0.0 test.e.ad.xiaomi.com
0.0.0.0 globalapi.ad.xiaomi.com
0.0.0.0 sdkconfig.ad.xiaomi.com
0.0.0.0 test.ad.xiaomi.com
0.0.0.0 zeus.ad.xiaomi.com
0.0.0.0 sgp.o2o.api.xiaomi.com
0.0.0.0 api.d.xiaomi.com
0.0.0.0 api.ad.intl.xiaomi.com
0.0.0.0 sdkconfig.ad.intl.xiaomi.com
0.0.0.0 data.mistat.intl.xiaomi.com
0.0.0.0 storeconfig.mistat.intl.xiaomi.com
0.0.0.0 cc.sys.intl.xiaomi.com
0.0.0.0 ccc.sys.intl.xiaomi.com
0.0.0.0 abtest.mistat.xiaomi.com
0.0.0.0 data.mistat.xiaomi.com
0.0.0.0 a.stat.xiaomi.com
0.0.0.0 analytics.xl.pt
0.0.0.0 xm0siulufost.com
0.0.0.0 xmeeting.com
0.0.0.0 www.xmeeting.com
0.0.0.0 xn--blckchain-17c.com
0.0.0.0 xn--discrd-zxa.com
0.0.0.0 xn--disordapp-s3a.com
0.0.0.0 xn--minecrft-5za.com
0.0.0.0 xn--yotu-1ra.be
0.0.0.0 xskcjzamlkxwo.gq
0.0.0.0 beap-bc.yahoo.com
0.0.0.0 fc.yahoo.com
0.0.0.0 pr-bh.ybp.yahoo.com
0.0.0.0 adscan.yelabapp.com
0.0.0.0 fresh.ygto.com
0.0.0.0 yhdncj.biz
0.0.0.0 yhdnrjncdndswnrj.nl
0.0.0.0 yip.su
0.0.0.0 www.yip.su
0.0.0.0 zh.yomobi.net
0.0.0.0 onlineapi.youappi.com
0.0.0.0 static.youappi.com
0.0.0.0 youfunv.com
0.0.0.0 younglust.to
0.0.0.0 younglustforum.pw
0.0.0.0 yoursuperservice.com
0.0.0.0 youshouldclick.us
0.0.0.0 api-resource.youzicheng.net
0.0.0.0 api-rssocks.youzicheng.net
0.0.0.0 app.storage.yunvm.com
0.0.0.0 www.app.storage.yunvm.com
0.0.0.0 yvxjsixn.eu
0.0.0.0 b.zabbixx.com
0.0.0.0 www.zarget.com
0.0.0.0 gurgle.zdbb.net
0.0.0.0 ns.zdbb.net
0.0.0.0 zekiatagur.com
0.0.0.0 www.zekiatagur.com
0.0.0.0 ads-bi.zenkube.com
0.0.0.0 databoat.zenkube.com
0.0.0.0 prod.zenkube.com
0.0.0.0 puzzle-recomd.zenkube.com
0.0.0.0 word-bi.zenkube.com
0.0.0.0 mackeeperapp.zeobit.com
0.0.0.0 www.mackeeperapp.zeobit.com
0.0.0.0 mjp.zimad.com
0.0.0.0 vietnam.zing.photos
0.0.0.0 in8.zog.link
0.0.0.0 zoplm.com
0.0.0.0 zvatrswtsrw.ml
0.0.0.0 alibaba.zzux.com
0.0.0.0 browserservice.zzux.com
0.0.0.0 www.skinstrip.net
0.0.0.0 creative.skinstrip.net
0.0.0.0 go.alxbgo.com
0.0.0.0 video.alxbgo.com
0.0.0.0 go.stripchat.com
0.0.0.0 2.livejasmin.com
0.0.0.0 apps.livejasmin.com
0.0.0.0 auth.livejasmin.com
0.0.0.0 autodiscover.livejasmin.com
0.0.0.0 ccs.livejasmin.com
0.0.0.0 crcom.livejasmin.com
0.0.0.0 crpop.livejasmin.com
0.0.0.0 crpt.livejasmin.com
0.0.0.0 crtbb.livejasmin.com
0.0.0.0 crtinf.livejasmin.com
0.0.0.0 free.livejasmin.com
0.0.0.0 gallery0.livejasmin.com
0.0.0.0 gallery1.livejasmin.com
0.0.0.0 jasmin-cams-live.com
0.0.0.0 link.info.livejasmin.com
0.0.0.0 live-cams-2.livejasmin.com
0.0.0.0 live-cams-3.livejasmin.com
0.0.0.0 live-cams-4.livejasmin.com
0.0.0.0 live-cams-5.livejasmin.com
0.0.0.0 livejasmin-hack.com
0.0.0.0 livejasmin.academy
0.0.0.0 livejasmin.cl
0.0.0.0 livejasmin.co.com
0.0.0.0 livejasmin.io
0.0.0.0 livejasmin.net.ag
0.0.0.0 livejasmin.net.nz
0.0.0.0 livejasmin.net.sc
0.0.0.0 livejasmin.org.in
0.0.0.0 livejasmin.porn
0.0.0.0 livejasmin.vg
0.0.0.0 livejasminacademy.com
0.0.0.0 livejasminacademy.tv
0.0.0.0 livejasminbabes.com
0.0.0.0 livejasmincall.com
0.0.0.0 livejasmincall.net
0.0.0.0 livejasmincdn.com
0.0.0.0 livejasmine.us
0.0.0.0 lubet.api.new.livejasmin.com
0.0.0.0 lubet.modelcenter.livejasmin.com
0.0.0.0 lubet.www.livejasmin.com
0.0.0.0 m.livejasmin.com
0.0.0.0 mailer.livejasmin.com
0.0.0.0 mastercenter.livejasmin.com
0.0.0.0 modelcenter.livejasmin.com
0.0.0.0 mxd.livejasmin.com
0.0.0.0 mxu.livejasmin.com
0.0.0.0 mylivejasmin.org
0.0.0.0 new.livejasmin.com
0.0.0.0 news.livejasmin.com
0.0.0.0 newsletter.livejasmin.com
0.0.0.0 newsletter2.livejasmin.com
0.0.0.0 old.livejasmin.com
0.0.0.0 performercenter.livejasmin.com
0.0.0.0 relay.livejasmin.com
0.0.0.0 sandbox.livejasmin.com
0.0.0.0 secure.livejasmin.com
0.0.0.0 static.livejasmin.com
0.0.0.0 streamdiag.livejasmin.com
0.0.0.0 sync.livejasmin.com
0.0.0.0 tv.livejasmin.com
0.0.0.0 updatehd.livejasmin.com
0.0.0.0 www.jasmin-cams-live.com
0.0.0.0 www.livejasmin-hack.com
0.0.0.0 www.livejasmin.academy
0.0.0.0 www.livejasmin.cl
0.0.0.0 www.livejasmin.co.com
0.0.0.0 www.livejasmin.io
0.0.0.0 www.livejasmin.net.ag
0.0.0.0 www.livejasmin.net.nz
0.0.0.0 www.livejasmin.net.sc
0.0.0.0 www.livejasmin.org.in
0.0.0.0 www.livejasminbabes.com
0.0.0.0 www.livejasmincall.com
0.0.0.0 www.livejasmincall.net
0.0.0.0 www.livejasmine.us
0.0.0.0 www.mylivejasmin.org
0.0.0.0 www.new.livejasmin.com
0.0.0.0 ads.adviad.com
0.0.0.0 ads2.adviad.com
0.0.0.0 ads3.adviad.com
0.0.0.0 ads4.adviad.com
0.0.0.0 sync.adviad.com
0.0.0.0 api.adviad.com
0.0.0.0 cdn.adviad.com
0.0.0.0 dmp.adviad.com
0.0.0.0 app.adviad.com
0.0.0.0 dsp.adviad.com
0.0.0.0 ssp.adviad.com
0.0.0.0 report.adviad.com
0.0.0.0 viglink.com
0.0.0.0 live.rezync.com
0.0.0.0 netc.sfr.fr
0.0.0.0 tag.clrstm.com
0.0.0.0 vkcache.com
0.0.0.0 b174.s240.meetrics.net
0.0.0.0 b95.s79.research.de.com
0.0.0.0 bid.sxp.smartclip.net
0.0.0.0 customers-lidl.kameleoon.com
0.0.0.0 eu-tlp01.kameleoon.eu
0.0.0.0 eu-tlp02.kameleoon.eu
0.0.0.0 eu-tlp05.kameleoon.eu
0.0.0.0 z9q9kj37oy.kameleoon.eu
0.0.0.0 storage.kameleoon.eu
0.0.0.0 logs1413.xiti.com
0.0.0.0 responder.wt-safetag.com
0.0.0.0 s240.mxcdn.net
0.0.0.0 s385.mxcdn.net
0.0.0.0 s79.mxcdn.net
0.0.0.0 www.lacmp.net
0.0.0.0 zipservice.adalliance.io
0.0.0.0 github.com.cnpmjs.org
0.0.0.0 facilitategovernor.com
0.0.0.0 mvideo.facilitategovernor.com
0.0.0.0 ns1.facilitategovernor.com
0.0.0.0 www.facilitategovernor.com
0.0.0.0 p.vtracy.de
0.0.0.0 www.asadcdn.com
0.0.0.0 adstax-cdn.adrtx.net
0.0.0.0 lmyd3iz3qn.kameleoon.eu
0.0.0.0 logs1407.xiti.com
0.0.0.0 s400.mxcdn.net
0.0.0.0 lb7.s400.meetrics.net
0.0.0.0 lb70.s400.meetrics.net
0.0.0.0 lb73.s400.meetrics.net
0.0.0.0 lb74.s400.meetrics.net
0.0.0.0 lb79.s400.meetrics.net
0.0.0.0 pdw-usr.userreport.com
0.0.0.0 eu-tlp04.kameleoon.eu
0.0.0.0 eu-tlp06.kameleoon.eu
0.0.0.0 eu-tlp07.kameleoon.eu
0.0.0.0 lb5.s400.meetrics.net
0.0.0.0 lb9.s400.meetrics.net
0.0.0.0 lb13.s400.meetrics.net
0.0.0.0 lb30.s400.meetrics.net
0.0.0.0 lb49.s400.meetrics.net
0.0.0.0 lb50.s400.meetrics.net
0.0.0.0 lb62.s400.meetrics.net
0.0.0.0 lb76.s400.meetrics.net
0.0.0.0 lb78.s400.meetrics.net
0.0.0.0 lb86.s400.meetrics.net
0.0.0.0 lb90.s400.meetrics.net
0.0.0.0 lb96.s400.meetrics.net
0.0.0.0 bls.adalliance.io
0.0.0.0 traffic.emsservice.de
0.0.0.0 static.emsservice.de
0.0.0.0 te.technical-service.net
0.0.0.0 news.thaprior.net
0.0.0.0 blog.eduelects.com
0.0.0.0 cdn.mirror-codes.net
0.0.0.0 status.sublineover.net
0.0.0.0 docs.pipenv.org # https://github.com/StevenBlack/hosts/issues/1635
0.0.0.0 a9v8.cn
0.0.0.0 config.unityads.unitychina.cn
0.0.0.0 cu-cn-north00001.gala.convection.cn
0.0.0.0 cu-cn-north00002.gala.convection.cn
0.0.0.0 discuz.gtimg.cn
0.0.0.0 duologinsupersdk.ewan.cn
0.0.0.0 hao.360.cn
0.0.0.0 imdns.hpplay.cn
0.0.0.0 logu.hpplay.cn
0.0.0.0 m.bchchk.cn
0.0.0.0 mathtype.cn
0.0.0.0 picanalysis.vivo.com.cn
0.0.0.0 rp.hpplay.cn
0.0.0.0 safeurl.maxthon.cn
0.0.0.0 ssdkauth.hpplay.cn
0.0.0.0 urgente.eu
0.0.0.0 localbestdating1.com
0.0.0.0 sylviagreen.club
0.0.0.0 xvtelink.com # ads with redirects
0.0.0.0 invol.co # tracking
0.0.0.0 36c4.net # redirect to go.trafficrouter.io
0.0.0.0 go.trafficrouter.io
0.0.0.0 track.venatusmedia.com # tracking
0.0.0.0 amptrack.dailymail.co.uk # tracking
0.0.0.0 mailmetromedia.amp.permutive.com #ad
0.0.0.0 mc.speakol.com
0.0.0.0 rd.speakol.com
0.0.0.0 inline.speakol.com
0.0.0.0 pixel.speakol.com
0.0.0.0 cdn.speakol.com
0.0.0.0 recommendation.speakol.com
0.0.0.0 crawler.speakol.com
0.0.0.0 ads.speakol.com
0.0.0.0 plugins.speakol.com
0.0.0.0 publishers.speakol.com
0.0.0.0 dev.publishers.speakol.com
0.0.0.0 www.gmial.com
0.0.0.0 gmial.com
0.0.0.0 assets.vlitag.com
0.0.0.0 services.vlitag.com
0.0.0.0 tag.vlitag.com
0.0.0.0 static.vliplatform.com
0.0.0.0 c.hrzn-nxt.com
0.0.0.0 s.clcktrax.com
0.0.0.0 ssl.googleanalytics.com
0.0.0.0 click.googleanalytics.com
0.0.0.0 alt2.googleanalytics.com
0.0.0.0 alt4.googleanalytics.com
0.0.0.0 sandbox.googleanalytics.com
0.0.0.0 admobclick.com
0.0.0.0 www.admobclick.com
0.0.0.0 pixel.admobclick.com
0.0.0.0 coinjoin.io
0.0.0.0 dealabs.digidip.net
0.0.0.0 whynotwin11.com
0.0.0.0 www.whynotwin11.com
0.0.0.0 www.secure-verify-info.ddns.info
0.0.0.0 secure-verify-info.ddns.info
0.0.0.0 www.secure-verify-account.ddns.info
0.0.0.0 secure-verify-account.ddns.info
0.0.0.0 www.secure-verify-update.ddns.info
0.0.0.0 secure-verify-update.ddns.info
0.0.0.0 www.security-update.ddns.info
0.0.0.0 security-update.ddns.info
0.0.0.0 update-security.ddns.info
0.0.0.0 www.update-security.ddns.info
0.0.0.0 www.security-update.ocry.com
0.0.0.0 security-update.ocry.com
0.0.0.0 update-information.zzux.com
0.0.0.0 www.update-information.zzux.com
0.0.0.0 information-security.zzux.com
0.0.0.0 www.information-security.zzux.com
0.0.0.0 information-update.dynamic-dns.net
0.0.0.0 www.information-update.dynamic-dns.net
0.0.0.0 www.security-info.zyns.com
0.0.0.0 security-info.zyns.com
0.0.0.0 update-security.qhigh.com
0.0.0.0 www.update-security.qhigh.com
0.0.0.0 www.security-update.qhigh.com
0.0.0.0 security-update.qhigh.com
0.0.0.0 www.seure-update.fartit.com
0.0.0.0 seure-update.fartit.com
0.0.0.0 www.updatecatalogs.com
0.0.0.0 microsoft.updatecatalogs.com
0.0.0.0 webmail.mmtimes.net
0.0.0.0 myanmar.flymna.net
0.0.0.0 new.mmtimes.org
0.0.0.0 ackng.com
0.0.0.0 bb3u9.com
0.0.0.0 ttr3p.com
0.0.0.0 zz3r0.com
0.0.0.0 sqlnetcat.com
0.0.0.0 netcatkit.com
0.0.0.0 hwqloan.com
0.0.0.0 75.ag
0.0.0.0 js88.ag
0.0.0.0 qq8.ag
0.0.0.0 cdnimages.xyz
0.0.0.0 pp6r1.com
0.0.0.0 amynx.com
0.0.0.0 zer9g.com
0.0.0.0 b69kq.com
0.0.0.0 down.sqlnetcat.com
0.0.0.0 gjapplog.ucweb.com
0.0.0.0 logssug.ucweb.com
0.0.0.0 attr.union.ucweb.com
0.0.0.0 www.luckycrush.live
0.0.0.0 mmsotk.com
0.0.0.0 discord-app.net
0.0.0.0 sk.mplmnt.io
0.0.0.0 org-upgrade.com
0.0.0.0 www.org-upgrade.com
0.0.0.0 www.abc.co.bz
0.0.0.0 xfnl-spspostit-online.preview-domain.com
0.0.0.0 ibancalculator-com.preview-domain.com
0.0.0.0 hiperdex.com